<?xml version="1.0" encoding="UTF-8"?>
<svg width="752pt" height="752pt" version="1.1" viewBox="0 0 752 752" xmlns="http://www.w3.org/2000/svg">
 <path d="m371.27 191.3c-99.453 0-179.96 80.508-179.96 179.96s80.508 179.96 179.96 179.96 179.96-80.508 179.96-179.96-80.508-179.96-179.96-179.96zm0.94531 238.21-77.664-75.773 13.262-13.734 64.406 62.984 62.984-64.406 13.734 13.262z"/>
</svg>
